<svg width="16" height="16" viewBox="0 0 16 16" fill="none" xmlns="http://www.w3.org/2000/svg">
<rect width="16" height="16" fill="black" fill-opacity="0"/>
<rect width="8.63787" height="16" fill="black" fill-opacity="0"/>
<rect width="8.63787" height="16" fill="black" fill-opacity="0"/>
<path d="M7.97344 14.6667H1.99334C1.62656 14.6667 1.32891 14.368 1.32891 14V2.00002C1.32891 1.63202 1.62659 1.33337 1.99334 1.33337H7.97344C8.34087 1.33337 8.63787 1.03538 8.63787 0.666715C8.63787 0.298053 8.34087 0 7.97344 0H1.99334C0.894344 0 0 0.897356 0 2.00002V14C0 15.1027 0.894344 16 1.99334 16H7.97344C8.34087 16 8.63787 15.702 8.63787 15.3333C8.63787 14.9647 8.34087 14.6667 7.97344 14.6667Z" fill="#5B5B5B"/>
<rect width="10.6844" height="9.33324" fill="black" fill-opacity="0" transform="translate(5.31555 3.3334)"/>
<rect width="10.6844" height="9.33324" fill="black" fill-opacity="0" transform="translate(5.31555 3.3334)"/>
<path d="M15.8019 7.52534L11.7621 3.52533C11.5016 3.26666 11.0803 3.27002 10.8225 3.53201C10.5647 3.79401 10.5674 4.216 10.8292 4.47468L13.7162 7.33333H5.97999C5.61255 7.33333 5.31555 7.63132 5.31555 7.99998C5.31555 8.36864 5.61255 8.66666 5.97999 8.66666H13.7162L10.8292 11.5253C10.5674 11.784 10.5654 12.206 10.8225 12.468C10.9527 12.6 11.1242 12.6666 11.2956 12.6666C11.4644 12.6666 11.6331 12.6026 11.7621 12.4746L15.8019 8.47462C15.9282 8.3493 15.9999 8.17861 15.9999 7.99995C15.9999 7.82136 15.9288 7.65135 15.8019 7.52534Z" fill="#5B5B5B"/>
</svg>
