<svg width="17" height="17" viewBox="0 0 17 17" fill="none" xmlns="http://www.w3.org/2000/svg">
<rect width="17" height="17" fill="black" fill-opacity="0"/>
<path d="M16.1298 6.71548L14.9366 6.51306C14.8123 6.11176 14.6525 5.72467 14.4572 5.35534L15.1603 4.37163C15.4587 3.95258 15.4125 3.38082 15.0467 3.01859L13.9884 1.96031C13.7896 1.76144 13.5268 1.65135 13.2462 1.65135C13.026 1.65135 12.8165 1.71882 12.6389 1.84667L11.6517 2.54982C11.2682 2.3474 10.8669 2.18049 10.4514 2.05619L10.2525 0.877167C10.1673 0.369334 9.73046 0 9.21553 0H7.72045C7.20551 0 6.76871 0.369334 6.68348 0.877167L6.4775 2.0846C6.07976 2.2089 5.69268 2.37226 5.32334 2.57113L4.34675 1.86798C4.16918 1.74013 3.95611 1.67266 3.73593 1.67266C3.45538 1.67266 3.18903 1.78275 2.99372 1.98162L1.93189 3.0399C1.56966 3.40213 1.51994 3.97389 1.81825 4.39294L2.5285 5.39085C2.33318 5.76373 2.17692 6.15083 2.05618 6.55212L0.877162 6.75099C0.369331 6.83622 0 7.27303 0 7.78797V9.28306C0 9.79799 0.369331 10.2348 0.877162 10.32L2.08459 10.526C2.20889 10.9238 2.37224 11.3108 2.57111 11.6802L1.87152 12.6532C1.57321 13.0723 1.61938 13.644 1.98516 14.0063L3.04343 15.0645C3.2423 15.2634 3.5051 15.3735 3.78565 15.3735C4.00583 15.3735 4.21535 15.306 4.39291 15.1782L5.39082 14.4679C5.7495 14.6562 6.12593 14.8089 6.51302 14.9296L6.71189 16.1228C6.79712 16.6307 7.23392 17 7.74886 17H9.24749C9.76242 17 10.1992 16.6307 10.2845 16.1228L10.4869 14.9296C10.8882 14.8053 11.2753 14.6455 11.6446 14.4502L12.6283 15.1533C12.8059 15.2812 13.0189 15.3487 13.2391 15.3487C13.5197 15.3487 13.7825 15.2386 13.9813 15.0397L15.0396 13.9814C15.4018 13.6192 15.4515 13.0474 15.1532 12.6284L14.4501 11.6411C14.6454 11.2682 14.8088 10.8811 14.9295 10.4834L16.1227 10.2845C16.6306 10.1993 16.9999 9.76248 16.9999 9.24755V7.75245C17.007 7.23752 16.6377 6.80071 16.1298 6.71548ZM16.0482 9.24755C16.0482 9.29371 16.0162 9.33278 15.97 9.33988L14.4785 9.58847C14.2903 9.62043 14.1411 9.75893 14.095 9.94005C13.96 10.4621 13.754 10.9628 13.477 11.428C13.3812 11.5914 13.3883 11.7938 13.4984 11.9501L14.3755 13.1859C14.4004 13.2214 14.3968 13.2747 14.3649 13.3067L13.3066 14.3649C13.2817 14.3898 13.2569 14.3934 13.2391 14.3934C13.2178 14.3934 13.2 14.3863 13.1858 14.3756L11.9536 13.4984C11.8008 13.3883 11.5949 13.3812 11.4315 13.4771C10.9663 13.7541 10.4656 13.9601 9.94354 14.095C9.75887 14.1412 9.62037 14.2939 9.59196 14.4786L9.33982 15.9701C9.33272 16.0163 9.29366 16.0483 9.24749 16.0483H7.75241C7.70624 16.0483 7.66718 16.0163 7.66008 15.9701L7.41149 14.4786C7.37953 14.2904 7.24103 14.1412 7.05991 14.095C6.55208 13.9637 6.06201 13.7612 5.60389 13.4984C5.52932 13.4558 5.44409 13.4345 5.36241 13.4345C5.26652 13.4345 5.16709 13.4629 5.08541 13.5233L3.84247 14.4076C3.82471 14.4182 3.80695 14.4253 3.7892 14.4253C3.77499 14.4253 3.74658 14.4218 3.72172 14.3969L2.66345 13.3386C2.63149 13.3067 2.62793 13.2569 2.65279 13.2179L3.5264 11.9927C3.63649 11.8364 3.6436 11.6305 3.54771 11.4671C3.27071 11.0054 3.05764 10.5047 2.92269 9.98266C2.87297 9.80155 2.72382 9.66305 2.53915 9.63108L1.03697 9.37539C0.990803 9.36829 0.958841 9.32923 0.958841 9.28306V7.78797C0.958841 7.7418 0.990803 7.70274 1.03697 7.69563L2.51785 7.44704C2.70606 7.41508 2.85877 7.27658 2.90493 7.09192C3.03633 6.56988 3.23875 6.06559 3.5122 5.60038C3.60808 5.43702 3.59743 5.23459 3.48734 5.08189L2.60308 3.83894C2.57822 3.80343 2.58177 3.75016 2.61373 3.7182L3.67201 2.65991C3.69687 2.63505 3.72172 2.6315 3.73948 2.6315C3.76079 2.6315 3.77854 2.6386 3.79275 2.64926L5.01794 3.52287C5.17419 3.63296 5.38016 3.64007 5.54352 3.54418C6.00519 3.26718 6.50591 3.0541 7.02795 2.91916C7.20906 2.86944 7.34756 2.72028 7.37953 2.53562L7.63522 1.03342C7.64232 0.987257 7.68138 0.955296 7.72755 0.955296H9.22263C9.2688 0.955296 9.30786 0.987257 9.31496 1.03342L9.56355 2.51431C9.59551 2.70253 9.73401 2.85523 9.91868 2.9014C10.4549 3.03635 10.9663 3.24587 11.4422 3.52643C11.6055 3.62231 11.808 3.61521 11.9642 3.50512L13.1894 2.6244C13.2071 2.61375 13.2249 2.60664 13.2427 2.60664C13.2569 2.60664 13.2853 2.61019 13.3101 2.63505L14.3684 3.69334C14.4004 3.7253 14.4039 3.77502 14.3791 3.81408L13.5019 5.04638C13.3918 5.19908 13.3847 5.40506 13.4806 5.56841C13.7576 6.03363 13.9636 6.53436 14.0985 7.0564C14.1447 7.24107 14.2974 7.37957 14.4821 7.40798L15.9736 7.66012C16.0197 7.66722 16.0517 7.70629 16.0517 7.75245V9.24755H16.0482Z" fill="#5B5B5B"/>
<path d="M8.50171 4.82974C6.47749 4.82974 4.83325 6.47399 4.83325 8.49822C4.83325 10.5225 6.47749 12.1667 8.50171 12.1667C10.5259 12.1667 12.1702 10.5225 12.1702 8.49822C12.1702 6.47399 10.5259 4.82974 8.50171 4.82974ZM8.50171 11.2078C7.00662 11.2078 5.79209 9.99331 5.79209 8.49822C5.79209 7.00313 7.00662 5.78859 8.50171 5.78859C9.99679 5.78859 11.2113 7.00313 11.2113 8.49822C11.2113 9.99331 9.99679 11.2078 8.50171 11.2078Z" fill="#5B5B5B"/>
</svg>
