<?xml version="1.0" encoding="utf-8"?>
<!-- Generator: Adobe Illustrator 15.1.0, SVG Export Plug-In . SVG Version: 6.00 Build 0)  -->
<!DOCTYPE svg PUBLIC "-//W3C//DTD SVG 1.1//EN" "http://www.w3.org/Graphics/SVG/1.1/DTD/svg11.dtd">
<svg version="1.1" id="Layer_1" xmlns="http://www.w3.org/2000/svg" xmlns:xlink="http://www.w3.org/1999/xlink" x="0px" y="0px"
	 width="280.167px" height="63.667px" viewBox="0 0 280.167 63.667" enable-background="new 0 0 280.167 63.667"
	 xml:space="preserve">
<g>
	<path fill="#753BBD" d="M34.2,14.841L34.2,14.841L18.793,28.086V2.37H3.387v38.961v0.002v5.383v14.309l10.833-9.318l4.571-3.928
		l1.426-1.227L34.2,34.532v0.008v25.689h15.403V21.293V1.604L34.2,14.85V14.841z M82.883,2.37H61.229v57.766h15.406V45.674h6.247
		c5.934,0,11.088-2.137,15.316-6.352c4.228-4.217,6.371-9.363,6.371-15.303c0-5.912-2.142-11.053-6.369-15.28
		C93.972,4.512,88.821,2.37,82.883,2.37 M87.319,28.458c-1.24,1.242-2.692,1.846-4.436,1.846h-6.248V17.741h6.248
		c1.742,0,3.193,0.607,4.43,1.855c1.245,1.25,1.851,2.699,1.851,4.424C89.164,25.766,88.562,27.217,87.319,28.458 M127.14,28.088
		L127.14,28.088V2.37h-15.406v38.963v0.383v18.084v1.225l30.813-26.488v0.004v25.689h15.408V21.293V1.604L127.14,28.088z"/>
	<g>
		<g>
			<path d="M180.799,10.036l0.15-1.718h-0.095l-0.888,1.774l-4.924,7.265h-1.944V4.147h2.586v7.189l-0.188,1.773h0.112l0.925-1.83
				l4.926-7.133h1.926v13.209h-2.586V10.036z"/>
			<path d="M193.555,11.828h-4.83v5.529h-2.586V4.147h2.586v5.378h4.83V4.147h2.586v13.209h-2.586V11.828z"/>
			<path d="M207.463,16.815c-0.403,0.287-0.916,0.493-1.539,0.618s-1.262,0.188-1.916,0.188c-0.791,0-1.543-0.123-2.254-0.368
				s-1.338-0.642-1.877-1.189c-0.541-0.547-0.973-1.258-1.293-2.132s-0.481-1.935-0.481-3.18c0-1.296,0.18-2.381,0.538-3.255
				c0.357-0.875,0.824-1.579,1.396-2.114c0.571-0.534,1.211-0.918,1.914-1.15c0.705-0.232,1.409-0.35,2.113-0.35
				c0.755,0,1.395,0.051,1.916,0.151c0.521,0.101,0.953,0.22,1.292,0.358l-0.509,2.188c-0.29-0.138-0.633-0.238-1.028-0.302
				c-0.396-0.062-0.878-0.094-1.444-0.094c-1.043,0-1.884,0.372-2.519,1.115c-0.636,0.744-0.953,1.897-0.953,3.461
				c0,0.681,0.075,1.302,0.228,1.862c0.149,0.561,0.379,1.04,0.688,1.437s0.691,0.706,1.15,0.927c0.46,0.221,0.99,0.331,1.596,0.331
				c0.564,0,1.044-0.057,1.434-0.17c0.391-0.113,0.729-0.258,1.021-0.434L207.463,16.815z"/>
			<path d="M218.917,6.45h-3.85v10.907h-2.585V6.45h-3.868V4.147h10.303V6.45L218.917,6.45z"/>
			<path d="M228.238,10.036l0.151-1.718h-0.096l-0.887,1.774l-4.925,7.265h-1.944V4.147h2.586v7.189l-0.188,1.773h0.112l0.926-1.83
				l4.926-7.133h1.924v13.209h-2.585V10.036L228.238,10.036z"/>
			<path d="M242.747,6.45h-3.85v10.907h-2.583V6.45h-3.849V4.147h10.281V6.45L242.747,6.45z"/>
			<path d="M249.067,9.979l0.377,1.717h0.113l0.303-1.773l1.98-5.774h2.66l-3.51,9.133c-0.277,0.717-0.543,1.34-0.801,1.868
				s-0.535,0.966-0.83,1.312c-0.297,0.347-0.627,0.604-0.992,0.773s-0.793,0.255-1.283,0.255c-0.414,0-0.752-0.028-1.01-0.085
				c-0.258-0.057-0.537-0.179-0.84-0.367l0.662-2.095c0.213,0.113,0.408,0.183,0.584,0.207c0.176,0.025,0.365,0.038,0.564,0.038
				c0.594,0,1.008-0.466,1.246-1.396l-4.943-9.643h3.039L249.067,9.979z"/>
			<path d="M265.315,6.45h-3.852v10.907h-2.584V6.45h-3.867V4.147h10.303V6.45L265.315,6.45z"/>
		</g>
		<g>
			<path d="M173.1,24.608c0.528-0.1,1.11-0.18,1.745-0.234c0.636-0.057,1.268-0.084,1.896-0.084c0.653,0,1.312,0.053,1.973,0.16
				c0.66,0.105,1.254,0.318,1.783,0.641c0.527,0.32,0.959,0.768,1.293,1.34c0.332,0.572,0.5,1.318,0.5,2.236
				c0,0.83-0.146,1.531-0.436,2.104c-0.289,0.572-0.673,1.041-1.15,1.406c-0.479,0.365-1.021,0.629-1.633,0.793
				c-0.609,0.164-1.242,0.244-1.896,0.244c-0.062,0-0.162,0-0.301,0c-0.14,0-0.283-0.002-0.435-0.008
				c-0.151-0.008-0.3-0.018-0.442-0.029c-0.146-0.012-0.25-0.025-0.312-0.037v4.547h-2.586L173.1,24.608L173.1,24.608z
				 M176.949,26.514c-0.252,0-0.49,0.01-0.717,0.029c-0.227,0.018-0.409,0.041-0.547,0.064v4.285
				c0.05,0.014,0.125,0.025,0.227,0.037s0.207,0.021,0.32,0.027c0.113,0.008,0.225,0.01,0.33,0.01s0.186,0,0.236,0
				c0.34,0,0.676-0.031,1.01-0.094c0.333-0.062,0.632-0.18,0.896-0.35c0.264-0.17,0.475-0.406,0.633-0.709
				c0.156-0.301,0.234-0.697,0.234-1.188c0-0.414-0.074-0.758-0.227-1.027c-0.15-0.271-0.35-0.486-0.594-0.65
				c-0.246-0.164-0.525-0.277-0.84-0.342C177.598,26.545,177.276,26.514,176.949,26.514z"/>
			<path d="M189.441,34.76h-4.059l-1,2.926h-2.584l4.754-13.305h1.906l4.756,13.305h-2.717L189.441,34.76z M186.044,32.684h2.83
				l-0.98-2.941l-0.396-2.076h-0.095l-0.396,2.094L186.044,32.684z"/>
			<path d="M195.934,31.836v-2.021h0.452c0.113,0,0.252,0,0.416,0c0.162,0,0.33-0.002,0.5-0.008c0.17-0.008,0.336-0.02,0.5-0.039
				c0.162-0.018,0.295-0.041,0.396-0.064c0.438-0.102,0.817-0.279,1.132-0.537c0.315-0.258,0.473-0.607,0.473-1.049
				c0-0.604-0.192-1.016-0.575-1.236c-0.384-0.219-0.892-0.33-1.521-0.33c-0.565,0-1.095,0.076-1.584,0.229
				c-0.49,0.15-0.863,0.295-1.113,0.434l-0.66-2.189c0.138-0.074,0.336-0.156,0.594-0.244s0.555-0.174,0.889-0.256
				c0.332-0.082,0.693-0.146,1.084-0.197s0.786-0.074,1.188-0.074c0.554,0,1.095,0.051,1.623,0.148c0.528,0.104,1,0.277,1.415,0.529
				s0.748,0.588,1,1.01s0.378,0.959,0.378,1.613s-0.175,1.258-0.521,1.812c-0.346,0.553-0.901,0.957-1.67,1.207v0.096
				c0.817,0.162,1.456,0.516,1.916,1.057c0.459,0.541,0.688,1.266,0.688,2.17c0,0.717-0.146,1.33-0.435,1.84
				s-0.67,0.928-1.143,1.256c-0.473,0.326-1.016,0.568-1.632,0.727c-0.617,0.156-1.246,0.236-1.888,0.236
				c-0.83,0-1.586-0.07-2.265-0.209c-0.68-0.139-1.202-0.303-1.565-0.49l0.66-2.246c0.289,0.139,0.703,0.281,1.244,0.426
				s1.184,0.217,1.926,0.217c0.276,0,0.557-0.033,0.84-0.104s0.537-0.184,0.765-0.34c0.228-0.158,0.408-0.361,0.547-0.613
				c0.14-0.252,0.208-0.555,0.208-0.906c0-0.592-0.221-1.037-0.66-1.34c-0.441-0.303-1.227-0.465-2.359-0.49
				c-0.149-0.014-0.264-0.02-0.34-0.02c-0.074,0-0.207,0-0.396,0h-0.508V31.836z"/>
			<path d="M214.085,27.551c0,0.328-0.041,0.654-0.123,0.982c-0.082,0.326-0.217,0.625-0.404,0.895
				c-0.189,0.271-0.436,0.51-0.736,0.717c-0.302,0.209-0.667,0.363-1.095,0.463v0.115c0.378,0.062,0.735,0.17,1.075,0.32
				s0.636,0.357,0.888,0.623c0.251,0.264,0.449,0.584,0.595,0.961c0.145,0.379,0.217,0.824,0.217,1.34
				c0,0.68-0.146,1.27-0.435,1.766s-0.676,0.902-1.16,1.217c-0.483,0.314-1.034,0.549-1.651,0.697
				c-0.615,0.152-1.252,0.229-1.905,0.229c-0.214,0-0.487,0-0.82,0c-0.334,0-0.692-0.01-1.075-0.029
				c-0.385-0.018-0.773-0.047-1.171-0.084c-0.396-0.037-0.758-0.094-1.085-0.17V24.571c0.239-0.037,0.514-0.074,0.821-0.113
				c0.308-0.037,0.639-0.068,0.989-0.094c0.354-0.025,0.715-0.043,1.086-0.057s0.738-0.02,1.104-0.02
				c0.616,0,1.218,0.047,1.802,0.141c0.586,0.096,1.107,0.262,1.566,0.502c0.459,0.238,0.827,0.572,1.104,1
				C213.947,26.358,214.085,26.899,214.085,27.551z M208.519,30.024c0.177,0,0.381-0.006,0.613-0.018
				c0.231-0.014,0.425-0.031,0.576-0.057c0.478-0.148,0.89-0.373,1.234-0.674c0.346-0.299,0.52-0.689,0.52-1.176
				c0-0.324-0.062-0.592-0.188-0.803c-0.125-0.213-0.292-0.381-0.5-0.504c-0.207-0.125-0.442-0.213-0.707-0.262
				c-0.265-0.051-0.541-0.074-0.83-0.074c-0.328,0-0.63,0.006-0.905,0.018c-0.276,0.014-0.49,0.031-0.643,0.057v3.492H208.519
				L208.519,30.024z M209.368,35.706c0.314,0,0.619-0.037,0.915-0.113c0.297-0.074,0.557-0.188,0.783-0.346
				c0.227-0.154,0.408-0.352,0.547-0.588s0.208-0.518,0.208-0.842c0-0.41-0.082-0.732-0.245-0.971
				c-0.164-0.236-0.378-0.42-0.642-0.551c-0.265-0.131-0.562-0.215-0.888-0.252c-0.328-0.037-0.654-0.057-0.98-0.057h-1.378v3.604
				c0.062,0.025,0.163,0.045,0.302,0.057c0.139,0.014,0.286,0.021,0.443,0.027c0.156,0.008,0.32,0.014,0.49,0.021
				C209.095,35.702,209.242,35.706,209.368,35.706z"/>
			<path d="M224.522,30.366l0.15-1.719h-0.094l-0.889,1.773l-4.924,7.266h-1.945V24.477h2.586v7.189l-0.188,1.771h0.113l0.924-1.83
				l4.926-7.133h1.926v13.209h-2.586V30.366L224.522,30.366z"/>
			<path d="M239.215,26.78h-3.844v10.906h-2.57V26.78h-3.865v-2.303h10.279V26.78z"/>
			<path d="M248.709,30.366l0.15-1.719h-0.094l-0.889,1.773l-4.924,7.266h-1.945V24.477h2.586v7.189l-0.188,1.771h0.113l0.924-1.83
				l4.926-7.133h1.926v13.209h-2.586V30.366z"/>
			<path d="M262.709,37.686h-2.586v-5.229l-1.357,0.359l-2.756,4.867h-3l2.719-4.395l1.133-0.812
				c-0.404-0.102-0.781-0.256-1.133-0.463c-0.354-0.207-0.66-0.475-0.926-0.803c-0.264-0.326-0.473-0.713-0.621-1.16
				c-0.152-0.445-0.229-0.953-0.229-1.52c0-0.791,0.139-1.459,0.416-2c0.275-0.541,0.66-0.979,1.15-1.312
				c0.49-0.332,1.076-0.572,1.756-0.717c0.678-0.145,1.414-0.217,2.207-0.217c0.213,0,0.459,0.006,0.734,0.02
				c0.277,0.012,0.562,0.031,0.859,0.057c0.295,0.025,0.584,0.057,0.867,0.094c0.283,0.039,0.539,0.09,0.766,0.15V37.686
				L262.709,37.686z M259.163,26.59c-0.34,0-0.66,0.031-0.963,0.094c-0.301,0.062-0.564,0.17-0.791,0.32
				c-0.227,0.152-0.406,0.359-0.539,0.623c-0.131,0.264-0.197,0.604-0.197,1.02c0,0.391,0.062,0.721,0.189,0.99
				c0.125,0.271,0.301,0.49,0.527,0.66s0.49,0.293,0.793,0.369c0.301,0.074,0.629,0.113,0.98,0.113h0.961v-4.096
				c-0.137-0.023-0.279-0.047-0.424-0.064C259.555,26.6,259.375,26.59,259.163,26.59z"/>
		</g>
		<g>
			<path d="M180.799,51.524l0.15-1.719h-0.095l-0.888,1.775l-4.924,7.264h-1.944V45.637h2.586v7.189l-0.188,1.771h0.112l0.925-1.83
				l4.926-7.133h1.926v13.209h-2.586V51.524z"/>
			<path d="M193.725,53.315h-4.83v5.529h-2.586V45.637h2.586v5.377h4.83v-5.377h2.586v13.209h-2.586V53.315z"/>
			<path d="M208.613,47.938h-3.85v10.906h-2.585V47.938h-3.868v-2.303h10.303V47.938L208.613,47.938z"/>
			<path d="M210.594,45.637h7.832v2.301h-5.246v3.076h4.773v2.303h-4.773v3.229h5.34v2.301h-7.926V45.637z"/>
			<path d="M221.086,45.768c0.527-0.102,1.109-0.18,1.746-0.236c0.635-0.057,1.267-0.084,1.896-0.084
				c0.653,0,1.312,0.053,1.972,0.16c0.66,0.105,1.256,0.32,1.783,0.643c0.527,0.32,0.959,0.768,1.293,1.34
				c0.333,0.572,0.5,1.316,0.5,2.236c0,0.83-0.145,1.529-0.436,2.104c-0.289,0.572-0.672,1.041-1.149,1.406
				c-0.479,0.363-1.022,0.629-1.633,0.791c-0.61,0.164-1.242,0.246-1.896,0.246c-0.062,0-0.164,0-0.303,0s-0.283-0.004-0.434-0.01
				c-0.151-0.008-0.301-0.016-0.443-0.027c-0.146-0.014-0.249-0.025-0.312-0.039v4.549h-2.586V45.768H221.086z M224.936,47.674
				c-0.252,0-0.49,0.01-0.717,0.029c-0.227,0.018-0.409,0.041-0.547,0.064v4.283c0.05,0.014,0.125,0.025,0.227,0.037
				c0.102,0.014,0.207,0.023,0.32,0.029s0.224,0.01,0.33,0.01c0.105,0,0.186,0,0.236,0c0.34,0,0.676-0.031,1.01-0.096
				c0.332-0.062,0.631-0.18,0.896-0.35s0.476-0.404,0.633-0.707s0.235-0.697,0.235-1.188c0-0.416-0.075-0.758-0.227-1.029
				c-0.15-0.27-0.35-0.486-0.595-0.65c-0.245-0.162-0.524-0.275-0.84-0.34C225.584,47.706,225.263,47.674,224.936,47.674z"/>
			<path d="M239.915,53.315h-4.821v5.529h-2.573V45.637h2.573v5.377h4.821v-5.377h2.586v13.209h-2.586V53.315z"/>
			<path d="M245.422,45.637h7.832v2.301h-5.246v3.076h4.773v2.303h-4.773v3.229h5.342v2.301h-7.928V45.637z"/>
			<path d="M265.293,47.938h-3.85v10.906h-2.586V47.938h-3.867v-2.303h10.303V47.938L265.293,47.938z"/>
			<path d="M272.333,55.92h-4.059l-1,2.926h-2.584l4.754-13.305h1.906l4.756,13.305h-2.717L272.333,55.92z M268.936,53.844h2.83
				l-0.98-2.941l-0.396-2.076h-0.096l-0.395,2.094L268.936,53.844z"/>
		</g>
	</g>
</g>
</svg>
